{
  "api": "0",
  "authors": [
    "Patrick Spek <p.spek@tyil.work>"
  ],
  "depends": [
    "Matrix::Bot"
  ],
  "description": "A plugin for Matrix::Bot to automatically accept all room invites",
  "license": "AGPL-3.0",
  "meta-version": 0,
  "name": "Matrix::Bot::Plugin::AutoAcceptInvites",
  "perl": "6.d",
  "provides": {
    "Matrix::Bot::Plugin::AutoAcceptInvites": "lib/Matrix/Bot/Plugin/AutoAcceptInvites.pm6"
  },
  "resources": [
    
  ],
  "source-url": "https://gitlab.com/tyil/perl6-matrix-bot-plugin-autoacceptinvites",
  "tags": [
    
  ],
  "version": "0.1.0"
}